[
  {
    "_id": "1563481823764",
    "name": "Olga",
    "surname": "Gnatenko",
    "email": "olga@gmail.com",
    "password": "olga",
    "avatar": "https://i.pravatar.cc/150?img=29"
  },
  {
    "_id": "1563481878550",
    "name": "Alex",
    "surname": "Alexovich",
    "email": "alex@gmail.com",
    "password": "alex",
    "avatar": "https://i.pravatar.cc/150?img=12"
  },
  {
    "_id": "1563481884238",
    "name": "Bober",
    "surname": "Ivanov",
    "email": "bober@gmail.com",
    "password": "boberr",
    "avatar": "https://i.pravatar.cc/150?img=6"
  },
  {
    "_id": "1563560693485",
    "name": "Kim",
    "surname": "Kim",
    "email": "kim@gmail.com",
    "password": "kim",
    "avatar": "https://i.pravatar.cc/150?img=55"
  },
  {
    "_id": "1563563672421",
    "name": "admin",
    "surname": "admin",
    "email": "admin@gmail.com",
    "password": "admin",
    "avatar": "https://i.pravatar.cc/150?img=60"
  }
]
